…
You can use httr’s GET function to read any URL into your R session. However, some URL’s are more conducive to parsing and manipulation than others. For example, I can use GET to retrieve a csv file.

library(httr)
internet_thing <- GET("https://cn.dataone.org/cn/v2/resolve/urn:uuid:9e123f84-ce0d-4094-b898-c9e73680eafa")

If you take a look at the internet_thing, it looks something like this:

The internet_thing includes a url, status_code, and a number of other attributes. The content looks particularly scary because it’s still in a raw format.

When we bring the content() function into the game, voila – the internet_thing gets automatically parsed into a tibble.

data <- content(internet_thing)
data[, 1:5] # showing just the first 5 columns

## # A tibble: 84 x 5
##    District.Name District.ID School.ID School.Name            Location    
##    <chr>               <int>     <int> <chr>                  <chr>       
##  1 Denali                  2     20010 Anderson School        Anderson    
##  2 Denali                  2     20030 Cantwell School        Cantwell    
##  3 Denali                  2     20040 Tri-Valley School      Healy       
##  4 Denali                  2     28010 Denali Peak Program    Healy       
##  5 Bering Strait           7     70010 Brevig Mission School  Brevig Miss~
##  6 Bering Strait           7     70040 Aniguiin School        Elim        
##  7 Bering Strait           7     70050 Little Diomede School  Diomede     
##  8 Bering Strait           7     70060 Martin L. Olson School Golovin     
##  9 Bering Strait           7     70070 Koyuk-Malimiut School  Koyuk       
## 10 Bering Strait           7     70080 Anthony A. Andrews Sc~ St. Michael 
## # ... with 74 more rows
…
