Rats to reefs
…
atlantic <- readLines("https://raw.githubusercontent.com/isteves/website/master/static/post/2018-07-12-rats-to-reefs_files/ratsreef-atlantic.txt")
bbc <- readLines("https://raw.githubusercontent.com/isteves/website/master/static/post/2018-07-12-rats-to-reefs_files/ratsreef-bbc.txt")
nature <- readLines("https://raw.githubusercontent.com/isteves/website/master/static/post/2018-07-12-rats-to-reefs_files/ratsreef-nature.txt")

I decided to begin with just the Atlantic article to catch any funny business before going too deep into the text analysis.

tibble(text = atlantic) %>% 
    unnest_tokens(word, text) %>% 
    anti_join(stop_words, by = "word") %>% 
    count(word, sort = TRUE) 

## # A tibble: 287 x 2
##    word         n
##    <chr>    <int>
##  1            17
##  2 islands     17
##  3 rats        12
##  4 rat         11
##  5 reefs        9
##  6 island       7
##  7 nitrogen     7
##  8 coral        6
##  9 free         6
## 10 found        5
## # ... with 277 more rows
…
With a few extra lines of stringr, I can fix these problems.

tibble(text = atlantic) %>% 
    mutate(text = str_replace_all(text, "[^a-zA-Z]", " ")) %>% 
    # replace anything NOT (^) in the alphabet with a space
    
    unnest_tokens(word, text) %>% 
    anti_join(stop_words, by = "word") %>% 
    mutate(word = str_replace(word, "s$", "")) %>% 
    # quick and dirty removal of any `s` at the end of a word
    
    count(word, sort = TRUE) 

## # A tibble: 245 x 2
##    word           n
##    <chr>      <int>
##  1 island        26
##  2 rat           24
##  3 reef          11
##  4 coral         10
##  5 graham         8
##  6 seabird        8
##  7 nitrogen       7
##  8 free           6
##  9 difference     5
## 10 found          5
## # ... with 235 more rows
…
